bikedata
…
tm <- bike_tripmat (bikedb = bikedb, city = 'la')
class (tm); dim (tm); sum (tm)

## [1] "matrix"

## [1] 66 66

## [1] 131336

The Los Angeles Metro system has 66 docking stations, and there were a total of 131,336 individual trips up to April 2017. Trip matrices can also be extracted in long form using

bike_tripmat (bikedb = bikedb, city = 'la', long = TRUE)

## # A tibble: 4,356 x 3
##    start_station_id end_station_id numtrips
##    <chr>            <chr>             <dbl>
##  1 la3005           la3005             324.
##  2 la3005           la3006             105.
##  3 la3005           la3007              31.
##  4 la3005           la3008             173.
##  5 la3005           la3009               1.
##  6 la3005           la3010               9.
##  7 la3005           la3011              86.
##  8 la3005           la3014              49.
##  9 la3005           la3016              12.
## 10 la3005           la3018              39.
## # ... with 4,346 more rows

Details of the docking stations associated with these trip matrices can be obtained with

bike_stations (bikedb = bikedb)

## # A tibble: 662 x 6
##       id city  stn_id name  longitude latitude
##    <int> <chr> <chr>  <chr>     <dbl>    <dbl>
##  1     1 la    la3005 ""        -118.     34.0
##  2     2 la    la3006 ""        -118.     34.0
##  3     3 la    la3007 ""        -118.     34.1
##  4     4 la    la3008 ""        -118.     34.0
##  5     5 la    la3009 ""        -118.     34.0
##  6     6 la    la3010 ""        -118.     34.0
##  7     7 la    la3011 ""        -118.     34.0
##  8     8 la    la3014 ""        -118.     34.1
##  9     9 la    la3016 ""        -118.     34.1
## 10    10 la    la3018 ""        -118.     34.0
## # ... with 652 more rows
…
Standardisation implements a linear scaling of total numbers of trips to and from each station according to total durations of operation, with counts in the final trip matrix scaled to have the same total number of trips as the original matrix. This standardisation has two immediate consequences:

Numbers of trips between any pair of stations will not necessarily be integer values, but are rounded for the sake of sanity to three digits, corresponding to the maximal likely precision attainable for daily differences in operating durations;

Trip numbers will generally not equal actual observed numbers. Counts for the longest operating durations will be lower than actually recorded, while counts for more recent stations will be greater than observed values.

The standardise option nevertheless enables travel patterns between different (groups of) stations to be statistically compared in a way that is free of the potentially confounding influence of differing durations of operation.

5.2. Station Data

Data on docking stations may be accessed with the function bike_stations() as demonstrated above:

bike_stations (bikedb = bikedb)

## # A tibble: 662 x 6
##       id city  stn_id name  longitude latitude
##    <int> <chr> <chr>  <chr>     <dbl>    <dbl>
##  1     1 la    la3005 ""        -118.     34.0
##  2     2 la    la3006 ""        -118.     34.0
##  3     3 la    la3007 ""        -118.     34.1
##  4     4 la    la3008 ""        -118.     34.0
##  5     5 la    la3009 ""        -118.     34.0
##  6     6 la    la3010 ""        -118.     34.0
##  7     7 la    la3011 ""        -118.     34.0
##  8     8 la    la3014 ""        -118.     34.1
##  9     9 la    la3016 ""        -118.     34.1
## 10    10 la    la3018 ""        -118.     34.0
## # ... with 652 more rows

This function returns a tibble detailing the names and locations of all bicycle stations present in the database. Station data for specific cities may be extracted through specifying an additional city argument.

bike_stations (bikedb = bikedb, city = 'ch')

## # A tibble: 596 x 6
##       id city  stn_id name                          longitude latitude
##    <dbl> <chr> <chr>  <chr>                             <dbl>    <dbl>
##  1   67. ch    ch456  2112 W Peterson Ave               -87.7     42.0
##  2   68. ch    ch101  63rd St Beach                     -87.6     41.8
##  3   69. ch    ch109  900 W Harrison St                 -87.7     41.9
##  4   70. ch    ch21   Aberdeen St & Jackson Blvd        -87.7     41.9
##  5   71. ch    ch80   Aberdeen St & Monroe St           -87.7     41.9
##  6   72. ch    ch346  Ada St & Washington Blvd          -87.7     41.9
##  7   73. ch    ch341  Adler Planetarium                 -87.6     41.9
##  8   74. ch    ch444  Albany Ave & 26th St              -87.7     41.8
##  9   75. ch    ch511  Albany Ave & Bloomingdale Ave     -87.7     41.9
## 10   76. ch    ch376  Artesian Ave & Hubbard St         -87.7     41.9
## # ... with 586 more rows
…
c ('la' = TRUE, 'ch' = TRUE)

##   la   ch 
## TRUE TRUE

(At the time of this vignette, Chicago data for the first quarter of 2017 have not been released, and thus 2016 data are the latest.)

5.4. Time Series of Daily Trips

The bike_tripmat() function provides a spatial aggregation of data. An equivalent temporal aggregation is provided by the function bike_daily_trips(), which aggregates trips for individual days.

bike_daily_trips (bikedb = bikedb, city = 'ch')

## # A tibble: 366 x 2
##    date       numtrips
##    <chr>         <dbl>
##  1 2016-01-01     935.
##  2 2016-01-02    1421.
##  3 2016-01-03    1399.
##  4 2016-01-04    3833.
##  5 2016-01-05    4189.
##  6 2016-01-06    4608.
##  7 2016-01-07    5028.
##  8 2016-01-08    3425.
##  9 2016-01-09    1733.
## 10 2016-01-10     993.
## # ... with 356 more rows

Daily trip counts can also be standardised to account for differences in numbers of stations within a system as for trip matrix standardisation described above. Such standardisation is helpful because daily numbers of trips will generally increase with increasing numbers of stations. Standardisation returns a time series of daily trips reflecting what they would be if all system stations had been in operation throughout the entire time.

bike_daily_trips (bikedb = bikedb, city = 'ch', standardise = TRUE)

## # A tibble: 366 x 2
##    date       numtrips
##    <chr>         <dbl>
##  1 2016-01-01    2469.
##  2 2016-01-02    2482.
##  3 2016-01-03    2201.
##  4 2016-01-04    5510.
##  5 2016-01-05    5884.
##  6 2016-01-06    6298.
##  7 2016-01-07    6630.
##  8 2016-01-08    4476.
##  9 2016-01-09    2265.
## 10 2016-01-10    1298.
## # ... with 356 more rows
…
dplyr::collect (dplyr::tbl (db, 'datafiles'))

## # A tibble: 5 x 3
##      id city  name                            
##   <int> <chr> <chr>                           
## 1     0 la    la_metro_gbfs_trips_Q1_2017.zip 
## 2     1 la    MetroBikeShare_2016_Q3_trips.zip
## 3     2 la    Metro_trips_Q4_2016.zip         
## 4     3 ch    Divvy_Trips_2016_Q1Q2.zip       
## 5     4 ch    Divvy_Trips_2016_Q3Q4.zip

dplyr::collect (dplyr::tbl (db, 'stations'))

## # A tibble: 662 x 6
##       id city  stn_id name  longitude latitude
##    <int> <chr> <chr>  <chr>     <dbl>    <dbl>
##  1     1 la    la3005 ""        -118.     34.0
##  2     2 la    la3006 ""        -118.     34.0
##  3     3 la    la3007 ""        -118.     34.1
##  4     4 la    la3008 ""        -118.     34.0
##  5     5 la    la3009 ""        -118.     34.0
##  6     6 la    la3010 ""        -118.     34.0
##  7     7 la    la3011 ""        -118.     34.0
##  8     8 la    la3014 ""        -118.     34.1
##  9     9 la    la3016 ""        -118.     34.1
## 10    10 la    la3018 ""        -118.     34.0
## # ... with 652 more rows

dplyr::collect (dplyr::tbl (db, 'trips'))

## # A tibble: 100,000 x 11
##       id city  trip_duration start_time     stop_time     start_station_id
##    <int> <chr>         <dbl> <chr>          <chr>         <chr>           
##  1     1 la             480. 2017-01-01 00 2017-01-01 0 a               
##  2     2 la             720. 2017-01-01 00 2017-01-01 0 a               
##  3     3 la            1020. 2017-01-01 00 2017-01-01 0 a               
##  4     4 la             300. 2017-01-01 00 2017-01-01 0 a               
##  5     5 la             300. 2017-01-01 00 2017-01-01 0 a               
##  6     6 la            1200. 2017-01-01 00 2017-01-01 0 a               
##  7     7 la             720. 2017-01-01 00 2017-01-01 0 a               
##  8     8 la            2880. 2017-01-01 00 2017-01-01 0 a               
##  9     9 la            2820. 2017-01-01 00 2017-01-01 0 a               
## 10    10 la            1500. 2017-01-01 01 2017-01-01 0 a               
## # ... with 99,990 more rows, and 5 more variables: end_station_id <chr>,
## #   bike_id <chr>, user_type <chr>, birth_year <int>, gender <int>
…
